<?xml version="1.0" encoding="UTF-8"?>
<svg width="30px" height="30px" viewBox="0 0 30 30" version="1.1" xmlns="http://www.w3.org/2000/svg" xmlns:xlink="http://www.w3.org/1999/xlink">
    <!-- Generator: Sketch 49.1 (51147) - http://www.bohemiancoding.com/sketch -->
    <title>steering</title>
    <desc>Created with Sketch.</desc>
    <defs></defs>
    <g id="presentable" stroke="none" stroke-width="1" fill="none" fill-rule="evenodd">
        <g id="iPhone-8-Copy-9" transform="translate(-68.000000, -238.000000)" fill="#C5C6CA" fill-rule="nonzero">
            <path d="M83,238 C74.7157288,238 68,244.715729 68,253 C68,261.284271 74.7157288,268 83,268 C91.2842712,268 98,261.284271 98,253 C97.9898797,244.719924 91.2800757,238.01012 83,238 Z M83,266.77551 C75.3919958,266.77551 69.2244898,260.608004 69.2244898,253 C69.2244898,245.391996 75.3919958,239.22449 83,239.22449 C90.6080042,239.22449 96.7755102,245.391996 96.7755102,253 C96.7670748,260.604507 90.6045074,266.767075 83,266.77551 Z M73.5714286,254.689796 C73.175179,254.690752 72.802771,254.879227 72.5673469,255.197959 C72.3343028,255.511587 72.2649277,255.917602 72.3806122,256.290816 C73.4599821,259.764452 76.1672874,262.492327 79.6326531,263.597959 C80.0224162,263.72499 80.4496282,263.654169 80.777551,263.408163 C81.0989015,263.164427 81.2816054,262.779607 81.2673469,262.376531 L81.2673469,262.104082 C81.1378863,257.954255 77.7231969,254.664527 73.5714286,254.689796 Z M80,262.431633 C76.9148567,261.450017 74.5106419,259.012601 73.5714286,255.914286 C77.0574255,255.896017 79.9227587,258.659502 80.0306122,262.143878 L80.0306122,262.428571 C80.0233881,262.433396 80.0143118,262.43453 80.0061224,262.431633 L80,262.431633 Z M83,241.881633 C78.7784087,241.87086 74.9182472,244.262236 73.0479592,248.046939 C72.7914713,248.557577 72.9065324,249.176544 73.329392,249.560897 C73.7522516,249.94525 74.3793608,250.000869 74.8632653,249.696939 C76.7765306,248.496939 79.8163265,247.780612 83,247.780612 C86.1836735,247.780612 89.2234694,248.496939 91.1367347,249.696939 C91.6206392,250.000869 92.2477484,249.94525 92.670608,249.560897 C93.0934676,249.176544 93.2085287,248.557577 92.9520408,248.046939 C91.0817528,244.262236 87.2215913,241.87086 83,241.881633 Z M91.8530612,248.646939 C91.8530612,248.671429 91.822449,248.668367 91.7887755,248.646939 C89.6459184,247.309184 86.4530612,246.540816 83,246.540816 C79.5469388,246.540816 76.3418367,247.309184 74.1867347,248.656122 C74.1704749,248.657124 74.1550533,248.64882 74.1469388,248.634694 C74.136961,248.618782 74.136961,248.598565 74.1469388,248.582653 C75.8185604,245.221328 79.2490204,243.096078 83.0030612,243.096078 C86.7571021,243.096078 90.1875621,245.221328 91.8591837,248.582653 C91.873558,248.602584 91.8709393,248.63008 91.8530612,248.646939 Z M84.7418367,262.094898 L84.7418367,262.373469 C84.7210514,262.775939 84.8996333,263.162866 85.2193878,263.408163 C85.5455038,263.655243 85.9713972,263.728319 86.3612245,263.604082 C89.8310807,262.498325 92.5413608,259.766326 93.6193878,256.287755 C93.7350723,255.914541 93.6656972,255.508526 93.4326531,255.194898 C93.1956222,254.874818 92.8207387,254.68624 92.422449,254.686735 C88.2789169,254.669697 84.8743959,257.953452 84.7418367,262.094898 Z M92.45,255.923469 C91.4894512,259.018882 89.076289,261.449191 85.9877551,262.431633 C85.9632653,262.431633 85.9540816,262.431633 85.9540816,262.431633 L85.9540816,262.153061 C86.0620668,258.662702 88.9366434,255.896856 92.4285714,255.923469 L92.45,255.923469 Z M86.205102,253.122449 C86.2051014,251.82459 85.4231259,250.654584 84.2239416,250.158201 C83.0247573,249.661818 81.6446292,249.936856 80.7273422,250.85502 C79.8100552,251.773183 79.5363345,253.153573 80.0338619,254.352283 C80.5313893,255.550992 81.7021412,256.331851 83,256.330612 C84.769927,256.328928 86.2047896,254.895435 86.2081633,253.12551 L86.205102,253.122449 Z M83,255.106122 C81.9044474,255.106122 81.0163265,254.218002 81.0163265,253.122449 C81.0163265,252.026896 81.9044474,251.138776 83,251.138776 C84.0955526,251.138776 84.9836735,252.026896 84.9836735,253.122449 C84.9819878,254.217303 84.0948536,255.104437 83,255.106122 Z" id="steering"></path>
        </g>
    </g>
</svg>