<?xml version="1.0" encoding="utf-8"?>
<!-- Generator: Adobe Illustrator 21.1.0, SVG Export Plug-In . SVG Version: 6.00 Build 0)  -->
<svg version="1.1" id="Layer_1" xmlns="http://www.w3.org/2000/svg" xmlns:xlink="http://www.w3.org/1999/xlink" x="0px" y="0px"
	 viewBox="0 0 100 100" style="enable-background:new 0 0 100 100;" xml:space="preserve">
<g id="presentable">
	<g id="Trip_x2F_Car-booked-Copy" transform="translate(-175.000000, -533.000000)">
		<g id="Group-2" transform="translate(163.000000, 519.000000)">
			<g id="hotel" transform="translate(12.000000, 14.000000)">
				<path id="Shape" d="M45.8,69c1,0,2-0.8,2-2v-6.7c0-1-0.8-2-2-2c-1.2,0-2,0.8-2,2V67C43.9,68,44.8,69,45.8,69z"/>
				<path id="Shape_1_" d="M45.8,55.5c1,0,2-0.8,2-2v-6.7c0-1-0.8-2-2-2c-1.2,0-2,0.8-2,2v6.7C43.9,54.7,44.8,55.5,45.8,55.5z"/>
				<path id="Shape_2_" d="M45.8,42.1c1,0,2-0.8,2-2v-6.7c0-1.2-0.8-2-2-2c-1.2,0-2,0.8-2,2v6.7C43.9,41.3,44.8,42.1,45.8,42.1z"/>
				<path id="Shape_3_" d="M57,55.5c1.2,0,2-0.8,2-2v-6.7c0-1-0.8-2-2-2c-1,0-2,0.8-2,2v6.7C55,54.7,55.9,55.5,57,55.5z"/>
				<path id="Shape_4_" d="M57,69c1.2,0,2-0.8,2-2v-6.7c0-1-0.8-2-2-2c-1,0-2,0.8-2,2V67C55,68,55.9,69,57,69z"/>
				<path id="Shape_5_" d="M57,42.1c1.2,0,2-0.8,2-2v-6.7c0-1.2-0.8-2-2-2c-1,0-2,0.8-2,2v6.7C55,41.3,55.9,42.1,57,42.1z"/>
				<path id="Shape_6_" d="M75.8,58.4h2.7c1.2,0,2-0.8,2-2c0-1.2-0.8-2-2-2h-2.7c-1.2,0-2,0.8-2,2C73.8,57.4,74.7,58.4,75.8,58.4z"
					/>
				<path id="Shape_7_" d="M80.4,65.3c0-1.2-0.8-2-2-2h-2.7c-1.2,0-2,0.8-2,2c0,1,0.8,2,2,2h2.7C79.5,67.3,80.4,66.4,80.4,65.3z"/>
				<path id="Shape_8_" d="M15.1,67.8c-0.8,0.7-0.8,2-0.2,2.9c0.7,0.8,2,0.8,2.9,0.2L21,68v7.4c0,1.2,0.8,2,2,2c1,0,2-0.8,2-2v-7.6
					l3.5,2.9c0.3,0.3,0.8,0.5,1.3,0.5c0.5,0,1.2-0.2,1.5-0.7c0.7-0.8,0.7-2-0.2-2.9l-6-5v-1.5l3.5,2.9c0.3,0.3,0.8,0.5,1.3,0.5
					s1.2-0.2,1.5-0.7c0.7-0.8,0.7-2-0.2-2.9l-6-5v-2l3.5,2.9c0.3,0.3,0.8,0.5,1.3,0.5c0.5,0,1.2-0.2,1.5-0.7c0.7-0.8,0.7-2-0.2-2.9
					L24.8,48c-0.7-0.7-1.8-0.7-2.5,0l-7.2,6c-0.8,0.7-0.8,2-0.2,2.9s2,0.8,2.9,0.2l3.2-2.9V56l-5.7,5c-0.8,0.7-0.8,2-0.2,2.9
					c0.7,0.8,2,0.8,2.9,0.2l3.2-2.9v1.5L15.1,67.8z"/>
				<path id="Shape_9_" d="M33.7,39.8v37.1c0,1.2,0.8,2,2,2h33.1c0,0,3.2,0,9.4,0c4,0,7.4-3.4,7.4-7.4v-23c0-1.2-0.8-2-2-2H70.8
					V23.1c0-1.2-0.8-2-2-2H35.7c-1,0-2,0.8-2,2v6.7v5.9V39.8z M71.5,49.7h11.6V72c0,2-1.7,3.7-3.7,3.7h-7.9
					C71.5,75.7,71.5,49.7,71.5,49.7z M36.9,24.3h30.5v52H36.9V24.3z"/>
			</g>
		</g>
	</g>
</g>
</svg>
