<?xml version="1.0" encoding="UTF-8"?>
<svg width="34px" height="34px" viewBox="0 0 34 34" version="1.1" xmlns="http://www.w3.org/2000/svg" xmlns:xlink="http://www.w3.org/1999/xlink">
    <!-- Generator: Sketch 49.2 (51160) - http://www.bohemiancoding.com/sketch -->
    <title>close-circled</title>
    <desc>Created with Sketch.</desc>
    <defs></defs>
    <g id="final-direction/mobile" stroke="none" stroke-width="1" fill="none" fill-rule="evenodd">
        <g id="iPhone-8-Copy-10" transform="translate(-304.000000, -142.000000)">
            <g id="close-circled" transform="translate(305.000000, 143.000000)">
                <circle id="Oval-6" stroke="#979797" stroke-width="2" cx="16" cy="16" r="16"></circle>
                <g id="Group-4" transform="translate(10.000000, 9.000000)" fill="#979797" fill-rule="nonzero">
                    <polygon id="Line-3" transform="translate(6.500000, 7.000000) rotate(45.000000) translate(-6.500000, -7.000000) " points="6 -1 7 -1 7 15 6 15"></polygon>
                    <polygon id="Line-3-Copy" transform="translate(6.500000, 7.000000) scale(-1, 1) rotate(45.000000) translate(-6.500000, -7.000000) " points="6 -1 7 -1 7 15 6 15"></polygon>
                </g>
            </g>
        </g>
    </g>
</svg>