<?xml version="1.0" encoding="UTF-8"?>
<svg width="25px" height="25px" viewBox="0 0 25 25" version="1.1" xmlns="http://www.w3.org/2000/svg" xmlns:xlink="http://www.w3.org/1999/xlink">
    <!-- Generator: Sketch 49.1 (51147) - http://www.bohemiancoding.com/sketch -->
    <title>location</title>
    <desc>Created with Sketch.</desc>
    <defs></defs>
    <g id="presentable" stroke="none" stroke-width="1" fill="none" fill-rule="evenodd">
        <g id="Desktop-HD-Copy-6" transform="translate(-1337.000000, -225.000000)" fill="#FFFFFF" fill-rule="nonzero">
            <g id="noun_1058835_cc" transform="translate(1315.000000, 225.000000)">
                <g id="Group" transform="translate(22.000000, 0.000000)">
                    <g id="Group-5">
                        <g>
                            <g id="location-">
                                <path d="M12.5,19.7916667 C16.5270763,19.7916667 19.7916667,16.5270763 19.7916667,12.5 C19.7916667,8.4729237 16.5270763,5.20833333 12.5,5.20833333 C8.4729237,5.20833333 5.20833333,8.4729237 5.20833333,12.5 C5.20833333,16.5270763 8.4729237,19.7916667 12.5,19.7916667 Z M21.7453774,14.0625 C21.0578875,18.1603559 17.7119907,21.3567766 13.5416667,21.8177825 L13.5416667,23.9585339 C13.5416667,24.5337197 13.0793075,25 12.5,25 C11.9247034,25 11.4583333,24.5377952 11.4583333,23.9585339 L11.4583333,21.8177825 C7.11289937,21.3374192 3.66258083,17.8871006 3.18221748,13.5416667 L1.04146614,13.5416667 C0.466280272,13.5416667 0,13.0793075 0,12.5 C0,11.9247034 0.462204839,11.4583333 1.04146614,11.4583333 L3.18221748,11.4583333 C3.66258083,7.11289937 7.11289937,3.66258083 11.4583333,3.18221748 L11.4583333,1.04146614 C11.4583333,0.466280272 11.9206925,0 12.5,0 C13.0752966,0 13.5416667,0.462204839 13.5416667,1.04146614 L13.5416667,3.18221748 C18.0593484,3.68162185 21.6095456,7.39109875 21.8607769,11.9791667 L23.9585339,11.9791667 C24.5337197,11.9791667 25,12.4415258 25,13.0208333 C25,13.5961299 24.5377952,14.0625 23.9585339,14.0625 L21.7453774,14.0625 Z" id="location"></path>
                            </g>
                        </g>
                    </g>
                </g>
            </g>
        </g>
    </g>
</svg>