<?xml version="1.0" encoding="UTF-8"?>
<svg width="16px" height="7px" viewBox="0 0 16 7" version="1.1" xmlns="http://www.w3.org/2000/svg" xmlns:xlink="http://www.w3.org/1999/xlink">
    <!-- Generator: Sketch 48.2 (47327) - http://www.bohemiancoding.com/sketch -->
    <title>one-way</title>
    <desc>Created with Sketch.</desc>
    <defs></defs>
    <g id="Destinations/Adding" stroke="none" stroke-width="1" fill="none" fill-rule="evenodd" transform="translate(-180.000000, -524.000000)">
        <g id="Group" transform="translate(179.000000, 518.000000)" fill="#000000" fill-rule="nonzero">
            <path d="M16.9898609,9.40055962 C16.9883011,9.39226917 16.9849214,9.38453141 16.9828415,9.3765173 C16.9768621,9.35302767 16.9701027,9.32981439 16.9610035,9.3077065 C16.9568439,9.2974816 16.9511244,9.2883621 16.9461848,9.2786899 C16.9365657,9.25989819 16.9269466,9.24138284 16.9152476,9.22424922 C16.9084882,9.21430067 16.9006889,9.20518117 16.8931496,9.19550897 C16.8806707,9.18003345 16.8679319,9.16511063 16.8538931,9.15156954 C16.8499935,9.14770066 16.8471338,9.14300274 16.8429741,9.13941021 L13.4856363,6.11228776 C13.2984531,5.94316242 13.0176784,5.9680338 12.8585727,6.16700478 C12.699467,6.36625211 12.722605,6.66470859 12.9100481,6.83355758 L15.3426492,9.02693633 L1.44507994,9.02693633 C1.19940205,9.02693633 1,9.23861935 1,9.50004512 C1,9.76119453 1.19914208,9.9731539 1.44507994,9.9731539 L15.3426492,9.9731539 L12.9100481,12.1665327 C12.722605,12.3353816 12.699467,12.6338381 12.8585727,12.8330855 C12.9467048,12.9433485 13.0720135,13 13.1981022,13 C13.299753,13 13.4021838,12.9632456 13.4856363,12.8878025 L16.8429741,9.86095637 C16.8471338,9.85736384 16.8499935,9.85238957 16.8538931,9.84879704 C16.8679319,9.83525595 16.8806707,9.82033313 16.8931496,9.80485761 C16.9006889,9.79546176 16.9084882,9.78634225 16.9152476,9.77611736 C16.9269466,9.75898374 16.9368257,9.74046839 16.9461848,9.72167668 C16.9511244,9.71200448 16.9568439,9.70288498 16.9610035,9.69266008 C16.9703627,9.6705522 16.9768621,9.64733891 16.9828415,9.62384928 C16.9849214,9.61583518 16.9883011,9.60809741 16.9898609,9.59980696 C16.9963603,9.56775052 17,9.53458869 17,9.50032146 C17,9.46577789 16.9963603,9.43261606 16.9898609,9.40055962 Z" id="one-way"></path>
        </g>
    </g>
</svg>