<?xml version="1.0" encoding="UTF-8"?>
<svg width="14px" height="18px" viewBox="0 0 14 18" version="1.1" xmlns="http://www.w3.org/2000/svg" xmlns:xlink="http://www.w3.org/1999/xlink">
    <!-- Generator: Sketch 49.2 (51160) - http://www.bohemiancoding.com/sketch -->
    <title>recreation</title>
    <desc>Created with Sketch.</desc>
    <defs></defs>
    <g id="presentable" stroke="none" stroke-width="1" fill="none" fill-rule="evenodd">
        <g id="Trip/Car-booked" transform="translate(-281.000000, -534.000000)" fill="#6E6D6B" fill-rule="nonzero">
            <g id="Group-5" transform="translate(265.000000, 520.000000)">
                <path d="M28.353674,15.32 C27.2078864,14.46 25.4996212,14.02 23.1247159,14 C23.1247159,14 23.1247159,14 23.1038834,14 C23.0830509,14 23.0830509,14 23.0830509,14 C23.0622184,14 23.0413859,14 22.9997209,14 C20.5831506,14 18.8332204,14.42 17.6666002,15.32 C16.5624776,16.16 16,17.4 16,19.02 C16,20.66 17.3957777,23.12 18.6873928,24.9 C19.3123679,25.76 21.4997807,28.58 22.9997209,28.58 C23.0205534,28.58 23.0205534,28.58 23.0413859,28.58 C23.0622184,28.58 23.0830509,28.58 23.1038834,28.58 C23.1663809,28.58 23.2080459,28.56 23.2497109,28.56 C24.7288186,28.28 26.7079063,25.72 27.3120489,24.9 C28.6036641,23.12 29.9994417,20.66 29.9994417,19.02 C30.0202743,17.4 29.4577967,16.14 28.353674,15.32 Z M19.4790279,24.36 C17.9582552,22.28 16.9791276,20.18 16.9791276,19 C16.9791276,17.6 17.3749452,15.84 20.2498305,15.18 C19.3540329,16.16 18.9998804,17.62 18.9998804,19 C18.9998804,20.3 19.604023,22.46 20.6039831,24.8 C20.9373031,25.56 21.2289582,26.18 21.4789482,26.66 C20.8748056,26.12 20.187333,25.34 19.4790279,24.36 Z M22.5414058,26.66 C21.4997807,24.82 19.937343,21.02 19.937343,19 C19.937343,17.86 20.2081655,15.3 22.5414058,14.94 L22.5414058,26.66 Z M23.4997009,14.94 C26.0829313,15.28 26.2079263,18.36 26.2079263,19 C26.2079263,21.12 24.5204936,24.96 23.4997009,26.76 L23.4997009,14.94 Z M26.5620788,24.36 C25.8746062,25.28 25.2287987,26.02 24.6663211,26.58 C24.9371436,26.04 25.2287987,25.44 25.5204537,24.82 C26.0204338,23.68 27.1662214,20.86 27.1662214,19.02 C27.1662214,17.68 26.8120689,16.22 25.8954387,15.22 C28.6869941,15.9 29.0619791,17.64 29.0619791,19.02 C29.0828116,20.18 28.0828515,22.28 26.5620788,24.36 Z M22.3122483,30.4 L22.3122483,31.08 L23.7288585,31.08 L23.7288585,30.4 C23.7288585,30.14 23.9371835,29.94 24.208006,29.94 C24.4788286,29.94 24.6871536,30.14 24.6871536,30.4 L24.6871536,31.54 C24.6871536,31.8 24.4788286,32 24.208006,32 L21.8331007,32 C21.5622782,32 21.3539532,31.8 21.3539532,31.54 L21.3539532,30.4 C21.3539532,30.14 21.5622782,29.94 21.8331007,29.94 C22.1039233,29.94 22.3122483,30.16 22.3122483,30.4 Z" id="recreation"></path>
            </g>
        </g>
    </g>
</svg>