<?xml version="1.0" encoding="UTF-8"?>
<svg width="8px" height="13px" viewBox="0 0 8 13" version="1.1" xmlns="http://www.w3.org/2000/svg" xmlns:xlink="http://www.w3.org/1999/xlink">
    <!-- Generator: Sketch 48.2 (47327) - http://www.bohemiancoding.com/sketch -->
    <title>angle-back</title>
    <desc>Created with Sketch.</desc>
    <defs></defs>
    <g id="iPhone-8-Copy-5" stroke="none" stroke-width="1" fill="none" fill-rule="evenodd" transform="translate(-38.000000, -26.000000)" stroke-linecap="round" stroke-linejoin="round">
        <g id="icons/angle-back" transform="translate(39.000000, 27.000000)" stroke="#222222" stroke-width="2">
            <polyline transform="translate(2.858928, 5.500000) scale(-1, 1) translate(-2.858928, -5.500000) " points="0 0 5.71785603 5.64455018 0 11"></polyline>
        </g>
    </g>
</svg>