<?xml version="1.0" encoding="utf-8"?>
<!-- Generator: Adobe Illustrator 21.1.0, SVG Export Plug-In . SVG Version: 6.00 Build 0)  -->
<svg version="1.1" id="Layer_1" xmlns="http://www.w3.org/2000/svg" xmlns:xlink="http://www.w3.org/1999/xlink" x="0px" y="0px"
	 viewBox="0 0 50 50" style="enable-background:new 0 0 50 50;" xml:space="preserve">
<style type="text/css">
	.st0{fill:none;stroke:#000000;stroke-linecap:round;stroke-linejoin:round;stroke-miterlimit:10;}
	.st1{fill:none;stroke:#000000;stroke-width:2.7283;stroke-linecap:round;stroke-miterlimit:10;}
	.st2{fill:none;}
</style>
<g>
	<path d="M34.4,36.3h-6.1c-0.8,0-1.5-0.8-1.5-1.6L26,25.3c0-0.3-0.1-0.5-0.1-0.6c-0.1,0-0.1-0.1-0.2-0.1c-0.1-0.1-0.2-0.1-0.3-0.1
		c-0.6-0.3-0.6-1.3-0.5-1.6l0.4-4.8c0.1-0.7,0.7-1.3,1.5-1.3h9.1c0.8,0,1.5,0.5,1.5,1.3l0.4,4.8c0,0.3,0.1,1.3-0.5,1.6l-0.5,0.2
		c0,0.1-0.1,0.3-0.1,0.6l-0.7,9.5C35.8,35.5,35.2,36.3,34.4,36.3z M26,23.5c0.1,0,0.1,0.1,0.2,0.1c0.1,0.1,0.2,0.1,0.3,0.1
		c0.5,0.3,0.7,1.2,0.7,1.5l0.7,9.5c0,0.2,0.2,0.5,0.4,0.5h6.1c0.1,0,0.3-0.2,0.4-0.5l0.7-9.5c0-0.3,0.1-1.2,0.7-1.5l0.5-0.2
		c0-0.1,0-0.3,0-0.5l-0.4-4.8c0-0.2-0.3-0.2-0.4-0.2h-9.1c-0.1,0-0.3,0-0.4,0.2L26,23C26,23.2,26,23.4,26,23.5z"/>
	<path d="M20.1,33.2c0,0-0.3-1.8-0.3-3.6c0-1.8,0.3-3.5,0.3-3.5c1.4-1.6,2.3-5.3,2.3-9.6c0-1.1-0.1-2.2-0.2-3.3l-0.1-0.5h-7.7
		l-0.1,0.5c-0.1,1.1-0.2,2.2-0.2,3.3c0,4.2,0.9,8,2.3,9.6c0,0,0.3,1.8,0.3,3.5c0,1.8-0.3,3.6-0.3,3.6c-1.6,0.1-4.1,0.6-4.1,2
		c0,1.5,3.7,1.2,5.8,1.2s5.8,0.3,5.8-1.2C24.2,33.8,21.6,33.3,20.1,33.2z M18.3,35.1c-2.8,0-4.6,0-4.6,0c0.3-0.3,1.4-0.7,3.5-0.8
		l0.5,0c0,0,0.3-2.9,0.3-4.7c0-1.8-0.3-4-0.3-4l-0.2-0.2c-1.3-1.3-2.2-5-2.2-8.9c0-0.9,0-1.8,0.1-2.6h5.6c0.1,0.9,0.1,1.7,0.1,2.6
		c0,4-0.9,7.7-2.2,8.9l-0.2,0.2c0,0-0.3,2.3-0.3,4c0,1.8,0.3,4.7,0.3,4.7l0.5,0c2.1,0.1,3.2,0.6,3.5,0.8
		C23,35.1,21.1,35.1,18.3,35.1z"/>
</g>
</svg>
