<?xml version="1.0" encoding="utf-8"?>
<!-- Generator: Adobe Illustrator 21.1.0, SVG Export Plug-In . SVG Version: 6.00 Build 0)  -->
<svg version="1.1" id="Layer_1" xmlns="http://www.w3.org/2000/svg" xmlns:xlink="http://www.w3.org/1999/xlink" x="0px" y="0px"
	 viewBox="0 0 50 50" style="enable-background:new 0 0 50 50;" xml:space="preserve">
<style type="text/css">
	.st0{fill:none;stroke:#000000;stroke-linecap:round;stroke-linejoin:round;stroke-miterlimit:10;}
	.st1{fill:none;stroke:#000000;stroke-width:2.7283;stroke-linecap:round;stroke-miterlimit:10;}
	.st2{fill:none;}
</style>
<g>
	<path d="M12.8,29.8h1.1v1.1c0,1.3,1.1,2.4,2.4,2.4h8.5c0.8,0,1.5-0.4,2-1l0.3,0.7c0.1,0.1,0.2,0.2,0.3,0.2h4h4.1
		c0.1,0,0.3-0.1,0.3-0.2l2.2-5.1c0-0.1,0-0.3-0.1-0.4c-0.1-0.1-0.2-0.1-0.4-0.1l-0.1,0c-0.1-1.2-0.7-2.5-1.6-3.4
		c-0.8-0.9-2.2-1.9-4.5-1.9c-1.7,0-3.1,0.8-4.1,1.8v-1.3c0-0.2-0.1-0.4-0.4-0.4H14.3c-0.2,0-0.4,0.1-0.4,0.4v2.6h-1.1
		c-1.3,0-2.3,1.1-2.3,2.3C10.6,28.7,11.6,29.8,12.8,29.8z M31.4,22.9c2.5,0,5.2,1.8,5.4,4.8l-0.9,0.2L34,26.5l0,0c0,0,0,0,0,0
		c0,0-0.1,0-0.1,0l0,0l0,0c0,0-0.1,0-0.1,0h0h0l-2.1,0.9l-2.5-0.9h0h0c0,0-0.1,0-0.1,0c0,0-0.1,0-0.1,0c0,0,0,0,0,0c0,0,0,0,0,0
		l-1.3,1.3h-0.1l-0.7-0.1l-0.4-0.1c0-0.4,0.1-0.9,0.4-1.4c0.2-0.4,0.4-0.8,0.7-1.3C28.2,23.9,29.6,22.9,31.4,22.9z M34.5,32.5
		l1.6-3.9l1.1-0.3l-1.8,4.2L34.5,32.5L34.5,32.5z M30.7,32.5l-1.1-4.6l-0.1-0.5l1.6,0.5l0.2,0.1v4.5L30.7,32.5L30.7,32.5z
		 M29.3,32.5l-1.4-4.1l0.5-0.5l0.4-0.4l0.1,0.4l1.1,4.6H29.3z M27.7,32.5l-0.5-1.1l-0.7-1.5L26,28.4l0.7,0.1l0.6,0.1l0.1,0.4
		l1.2,3.5L27.7,32.5L27.7,32.5z M31.9,32.5V28l0.1,0l1.3-0.5l-0.1,0.5l-0.8,4.6H31.9z M33.2,32.5l0.8-4.6l0.1-0.5l0.7,0.5l0.7,0.5
		l-1.6,4.1L33.2,32.5L33.2,32.5z M14.7,23h11.9v1.8c-0.7,0.9-1,2-1.1,2.8h-0.1c-0.1,0-0.3,0-0.4,0.1c-0.1,0.1-0.1,0.3,0,0.4l1.5,3.4
		c-0.2,0.7-0.9,1.2-1.6,1.2h-8.6c-0.9,0-1.7-0.8-1.7-1.7L14.7,23L14.7,23z M12.8,25.9h1.1v3.2h-1.1c-0.9,0-1.6-0.7-1.6-1.6
		C11.2,26.6,12,25.9,12.8,25.9z"/>
	<path d="M24.5,20.3c0.2,0,0.4-0.1,0.4-0.4v-3.2c0-0.2-0.1-0.4-0.4-0.4c-0.2,0-0.4,0.1-0.4,0.4v3.2C24.1,20.2,24.3,20.3,24.5,20.3z"
		/>
	<path d="M20.6,20.3c0.2,0,0.4-0.1,0.4-0.4v-3.2c0-0.2-0.1-0.4-0.4-0.4s-0.4,0.1-0.4,0.4v3.2C20.2,20.1,20.4,20.3,20.6,20.3z"/>
	<path d="M16.8,20.3c0.2,0,0.4-0.1,0.4-0.4v-3.2c0-0.2-0.1-0.4-0.4-0.4s-0.4,0.1-0.4,0.4v3.2C16.4,20.2,16.6,20.3,16.8,20.3z"/>
	<circle cx="33.1" cy="24" r="0.7"/>
	<circle cx="30.7" cy="24.5" r="0.5"/>
	<circle cx="32" cy="25.7" r="0.4"/>
	<path d="M40.5,32.5c-0.2-0.1-0.4-0.1-0.5,0.1l-0.8,1.3H10.7L10,32.6c-0.1-0.2-0.3-0.3-0.5-0.1c-0.2,0.1-0.3,0.3-0.1,0.5l0.8,1.5
		c0.1,0.1,0.2,0.2,0.3,0.2h29c0.1,0,0.3-0.1,0.3-0.2l0.9-1.4C40.7,32.8,40.6,32.6,40.5,32.5z"/>
</g>
</svg>
