<?xml version="1.0" encoding="utf-8"?>
<!-- Generator: Adobe Illustrator 21.1.0, SVG Export Plug-In . SVG Version: 6.00 Build 0)  -->
<svg version="1.1" id="Layer_1" xmlns="http://www.w3.org/2000/svg" xmlns:xlink="http://www.w3.org/1999/xlink" x="0px" y="0px"
	 viewBox="0 0 51 51" style="enable-background:new 0 0 51 51;" xml:space="preserve">
<style type="text/css">
	.st0{fill:none;stroke:#000000;stroke-linecap:round;stroke-linejoin:round;stroke-miterlimit:10;}
	.st1{fill:none;stroke:#000000;stroke-width:2.7283;stroke-linecap:round;stroke-miterlimit:10;}
	.st2{fill:none;}
</style>
<path d="M24.8,36.6h-4.5c-0.3,0-0.5-0.2-0.5-0.5v-5.6L19,29.8c-0.1-0.1-0.1-0.2-0.1-0.3v-5.9c0-1.3,1-2.4,2.2-2.4h2.8
	c1.2,0,2.2,1.1,2.2,2.4v5.9c0,0.1,0,0.2-0.1,0.3l-0.8,0.8v5.6C25.2,36.4,25,36.6,24.8,36.6z M20.7,35.7h3.6v-5.3
	c0-0.1,0-0.2,0.1-0.3l0.8-0.8v-5.7c0-0.8-0.6-1.5-1.3-1.5h-2.8c-0.7,0-1.3,0.7-1.3,1.5v5.7l0.8,0.8c0.1,0.1,0.1,0.2,0.1,0.3
	C20.7,30.4,20.7,35.7,20.7,35.7z"/>
<path d="M22.5,20.8c-1.5,0-2.7-1.2-2.7-2.7c0-1.5,1.2-2.7,2.7-2.7c1.5,0,2.7,1.2,2.7,2.7C25.2,19.6,24,20.8,22.5,20.8z M22.5,16.3
	c-1,0-1.8,0.8-1.8,1.8c0,1,0.8,1.8,1.8,1.8c1,0,1.8-0.8,1.8-1.8C24.3,17.1,23.5,16.3,22.5,16.3z"/>
<path d="M33.9,36.6h-4.5c-0.3,0-0.5-0.2-0.5-0.5V33h-1.4c-0.1,0-0.3-0.1-0.4-0.2C27,32.7,27,32.6,27,32.4l1-4.9l0-4
	c0-1.3,1-2.4,2.2-2.4H33c1.2,0,2.2,1.1,2.2,2.4v4.1l0.9,4.7c0,0.1,0,0.1,0,0.2c0,0.2-0.2,0.5-0.5,0.5c0,0,0,0,0,0h-1.4v3.2
	C34.3,36.4,34.1,36.6,33.9,36.6z M29.8,35.7h3.6v-3.2c0-0.2,0.2-0.5,0.5-0.5h1.3l-0.8-4.3l0-4.2c0-0.8-0.6-1.5-1.3-1.5h-2.8
	c-0.7,0-1.3,0.7-1.3,1.5v4.1L28,32.1h1.3c0.3,0,0.5,0.2,0.5,0.5L29.8,35.7L29.8,35.7z"/>
<path d="M31.6,20.8c-1.5,0-2.7-1.2-2.7-2.7c0-1.5,1.2-2.7,2.7-2.7c1.5,0,2.7,1.2,2.7,2.7C34.3,19.6,33.1,20.8,31.6,20.8z M31.6,16.3
	c-1,0-1.8,0.8-1.8,1.8c0,1,0.8,1.8,1.8,1.8c1,0,1.8-0.8,1.8-1.8C33.4,17.1,32.6,16.3,31.6,16.3z"/>
</svg>
